{
  "project_info": {
    "project_id": "bezelandroid",
    "project_number": "172856454900",
    "name": "bezelandroid"
  },
  "client": [
    {
      "client_info": {
        "mobilesdk_app_id": "1:172856454900:android:495ecaa83da26e55",
        "client_id": "android:com.bezel.android.upi",
        "client_type": 1,
        "android_client_info": {
          "package_name": "com.bezel.android.upi",
          "certificate_hash": []
        }
      },
      "oauth_client": [],
      "api_key": [],
      "services": {
        "analytics_service": {
          "status": 2,
          "analytics_property": {
            "tracking_id": "UA-75251421-1"
          }
        },
        "cloud_messaging_service": {
          "status": 1,
          "apns_config": []
        },
        "appinvite_service": {
          "status": 1,
          "other_platform_oauth_client": []
        },
        "google_signin_service": {
          "status": 1
        },
        "ads_service": {
          "status": 2,
          "test_banner_ad_unit_id": "ca-app-pub-3940256099942544/6300978111",
          "test_interstitial_ad_unit_id": "ca-app-pub-3940256099942544/1033173712"
        }
      }
    }
  ],
  "client_info": [],
  "ARTIFACT_VERSION": "1"
}